{"_id":{"$oid":"59bba3c9b0bdb4087d8db379"},"email":"aa@gmail.com","firstname":"Smith1","lastname":"Larsson1","password":"$2a$10$DA0BZH48evsRsdNSex10Ke2uQtojPuYNu7FJhKKK6DXQiHabwQKM2","role":"superadministrator","organization":"org1","device_groups":[],"__v":0}
{"_id":{"$oid":"59bbaa0bb8f2b308e1915a09"},"email":"aaa@gmail.com","firstname":"paul","lastname":"garick","password":"$2a$10$alzEX.4q2y7A59xWNpGzDuPJURzIdQPis23L7TgvPZD8S7MbfWggW","role":"administrator","organization":"user","device_groups":[],"__v":0}
{"_id":{"$oid":"59c3be6c3aff9e104d11db71"},"email":"a@gmail.com","firstname":"Smith","lastname":"Larsson","password":"$2a$10$G/GirSCgvcYUUEyWRnPG0eNUlERIPaoY8kOjRAtBTeOIzFdcYRe7.","role":"level1","organization":"user1","device_groups":[],"__v":0}
{"_id":{"$oid":"59c425f80ecef92580f09329"},"email":"andreyakatiev007@gmail.com","firstname":"Andrey","lastname":"Akatiev","password":"$2a$10$YoqqNk2vCvpgLirJqQ7F4upGVZ91Qt8laLGHk7vrfy4adnQ40qAjG","role":"level2","organization":"Dev","device_groups":[],"__v":0}
{"_id":{"$oid":"59c42d409e5691269620896c"},"email":"thomasmuller@gmail.com","firstname":"Thoma1","lastname":"Muller1","password":"$2a$10$ix4VKYRrzbsLT3fgXEteU.LemGx03VsRaQFXBcv417j6YberDg5p6","role":"level2","organization":"DevCoding1","device_groups":[],"__v":0}
