[{"_id":{"$oid":"59bbb9bf5b72ce0b6aec6902"},"groupname":"Group1","profile":"","deviceuid":"","__v":0},
{"_id":{"$oid":"59bbfea5db157c110050925d"},"groupname":"Group3","profile":"","deviceuid":"","__v":0},
{"_id":{"$oid":"59c3a4b3851a440968a8fe87"},"groupname":"Group4","profile":"","deviceuid":"","__v":0},
{"_id":{"$oid":"59c3ad0369443e0b75398574"},"groupname":"Group2","profile":"","deviceuid":"","__v":0}]
